{
  "id": 235,
  "url": "https://parladata.lb.djnd.si/v3/cards/person/speeches/?id=235",
  "data": {
    "results": [
      {
        "id": 67337,
        "content": "Hvala za besedo, gospod župan. Spoštovane svetnice in svetniki. Poglejte, vsekakor ne moremo podpreti zvišanje parkirnin v coni 1 iz 0,80 evrov na 1,20 evrov/h, saj to pomeni zvišanje kar za 50 %, če si izračunate. Povišanje parkirnin za obiskovalce  [...]",
        "the_order": 164,
        "person": {
          "slug": "235-igor-horvat",
          "name": "Igor Horvat",
          "honorific_prefix": null,
          "honorific_suffix": null,
          "preferred_pronoun": "he",
          "group": {
            "name": "Slovenska demokratska stranka",
            "acronym": "SDS",
            "slug": "21-slovenska-demokratska-stranka",
            "color": "#CCBE18",
            "classification": "pg"
          },
          "image": "https://s3.fr-par.scw.cloud/parlameter/ljubljana/igor-horvat.png"
        },
        "start_time": "2021-11-15T15:30:00",
        "votes": [],
        "session": {
          "name": "27. seja Mestnega sveta MOL",
          "id": 3772,
          "start_time": "2021-11-15T15:30:00",
          "end_time": null,
          "organizations": [
            {
              "name": "Mestni svet MOL",
              "acronym": null,
              "slug": "1-mestni-svet-mol",
              "color": "#09A2CC",
              "classification": "root"
            }
          ],
          "classification": "regular",
          "in_review": false,
          "has_transcript": true
        }
      },
      {
        "id": 67324,
        "content": "Hvala za besedo. Spoštovani vsi prisotni. Svetniška skupina SDS vsekakor podpira predlog o dopolnitvi Odloka o organizaciji in načinu izvajanja mestnih linijskih prevozov, saj se s tem dokončno udejanja na vodstvo brezplačnem LPP prevozu za upokojenc [...]",
        "the_order": 151,
        "person": {
          "slug": "235-igor-horvat",
          "name": "Igor Horvat",
          "honorific_prefix": null,
          "honorific_suffix": null,
          "preferred_pronoun": "he",
          "group": {
            "name": "Slovenska demokratska stranka",
            "acronym": "SDS",
            "slug": "21-slovenska-demokratska-stranka",
            "color": "#CCBE18",
            "classification": "pg"
          },
          "image": "https://s3.fr-par.scw.cloud/parlameter/ljubljana/igor-horvat.png"
        },
        "start_time": "2021-11-15T15:30:00",
        "votes": [],
        "session": {
          "name": "27. seja Mestnega sveta MOL",
          "id": 3772,
          "start_time": "2021-11-15T15:30:00",
          "end_time": null,
          "organizations": [
            {
              "name": "Mestni svet MOL",
              "acronym": null,
              "slug": "1-mestni-svet-mol",
              "color": "#09A2CC",
              "classification": "root"
            }
          ],
          "classification": "regular",
          "in_review": false,
          "has_transcript": true
        }
      },
      {
        "id": 67560,
        "content": "Hvala besedo. Odbor za urejanje prostora je na 7. korespondenčni seji obravnaval sprejem predloga Sklepa o lokacijski preveritvi za del območja Odloka o občinskem podrobnem prostorskem načrtu 273 Tovil in glasoval tako, da za ni glasoval nihče, proti [...]",
        "the_order": 76,
        "person": {
          "slug": "235-igor-horvat",
          "name": "Igor Horvat",
          "honorific_prefix": null,
          "honorific_suffix": null,
          "preferred_pronoun": "he",
          "group": {
            "name": "Slovenska demokratska stranka",
            "acronym": "SDS",
            "slug": "21-slovenska-demokratska-stranka",
            "color": "#CCBE18",
            "classification": "pg"
          },
          "image": "https://s3.fr-par.scw.cloud/parlameter/ljubljana/igor-horvat.png"
        },
        "start_time": "2021-10-18T15:30:00",
        "votes": [],
        "session": {
          "name": "26. seja Mestnega sveta MOL",
          "id": 3773,
          "start_time": "2021-10-18T15:30:00",
          "end_time": null,
          "organizations": [
            {
              "name": "Mestni svet MOL",
              "acronym": null,
              "slug": "1-mestni-svet-mol",
              "color": "#09A2CC",
              "classification": "root"
            }
          ],
          "classification": "regular",
          "in_review": false,
          "has_transcript": true
        }
      },
      {
        "id": 67555,
        "content": "Ne, ne 30 minut zahtevamo.",
        "the_order": 71,
        "person": {
          "slug": "235-igor-horvat",
          "name": "Igor Horvat",
          "honorific_prefix": null,
          "honorific_suffix": null,
          "preferred_pronoun": "he",
          "group": {
            "name": "Slovenska demokratska stranka",
            "acronym": "SDS",
            "slug": "21-slovenska-demokratska-stranka",
            "color": "#CCBE18",
            "classification": "pg"
          },
          "image": "https://s3.fr-par.scw.cloud/parlameter/ljubljana/igor-horvat.png"
        },
        "start_time": "2021-10-18T15:30:00",
        "votes": [],
        "session": {
          "name": "26. seja Mestnega sveta MOL",
          "id": 3773,
          "start_time": "2021-10-18T15:30:00",
          "end_time": null,
          "organizations": [
            {
              "name": "Mestni svet MOL",
              "acronym": null,
              "slug": "1-mestni-svet-mol",
              "color": "#09A2CC",
              "classification": "root"
            }
          ],
          "classification": "regular",
          "in_review": false,
          "has_transcript": true
        }
      },
      {
        "id": 67553,
        "content": "Saj tukaj eksplicitno piše.",
        "the_order": 69,
        "person": {
          "slug": "235-igor-horvat",
          "name": "Igor Horvat",
          "honorific_prefix": null,
          "honorific_suffix": null,
          "preferred_pronoun": "he",
          "group": {
            "name": "Slovenska demokratska stranka",
            "acronym": "SDS",
            "slug": "21-slovenska-demokratska-stranka",
            "color": "#CCBE18",
            "classification": "pg"
          },
          "image": "https://s3.fr-par.scw.cloud/parlameter/ljubljana/igor-horvat.png"
        },
        "start_time": "2021-10-18T15:30:00",
        "votes": [],
        "session": {
          "name": "26. seja Mestnega sveta MOL",
          "id": 3773,
          "start_time": "2021-10-18T15:30:00",
          "end_time": null,
          "organizations": [
            {
              "name": "Mestni svet MOL",
              "acronym": null,
              "slug": "1-mestni-svet-mol",
              "color": "#09A2CC",
              "classification": "root"
            }
          ],
          "classification": "regular",
          "in_review": false,
          "has_transcript": true
        }
      },
      {
        "id": 67551,
        "content": "Hvala za besedo. V skladu s 112. členom poslovnika prosim za 30 minutno prekinitev seje, da se naš svetniški klub posvetuje glede glasovanja. Hvala. To imamo pravico in tudi tukaj je eksplicitno zabeleženo.",
        "the_order": 67,
        "person": {
          "slug": "235-igor-horvat",
          "name": "Igor Horvat",
          "honorific_prefix": null,
          "honorific_suffix": null,
          "preferred_pronoun": "he",
          "group": {
            "name": "Slovenska demokratska stranka",
            "acronym": "SDS",
            "slug": "21-slovenska-demokratska-stranka",
            "color": "#CCBE18",
            "classification": "pg"
          },
          "image": "https://s3.fr-par.scw.cloud/parlameter/ljubljana/igor-horvat.png"
        },
        "start_time": "2021-10-18T15:30:00",
        "votes": [],
        "session": {
          "name": "26. seja Mestnega sveta MOL",
          "id": 3773,
          "start_time": "2021-10-18T15:30:00",
          "end_time": null,
          "organizations": [
            {
              "name": "Mestni svet MOL",
              "acronym": null,
              "slug": "1-mestni-svet-mol",
              "color": "#09A2CC",
              "classification": "root"
            }
          ],
          "classification": "regular",
          "in_review": false,
          "has_transcript": true
        }
      },
      {
        "id": 67549,
        "content": "Proceduralno imam.",
        "the_order": 65,
        "person": {
          "slug": "235-igor-horvat",
          "name": "Igor Horvat",
          "honorific_prefix": null,
          "honorific_suffix": null,
          "preferred_pronoun": "he",
          "group": {
            "name": "Slovenska demokratska stranka",
            "acronym": "SDS",
            "slug": "21-slovenska-demokratska-stranka",
            "color": "#CCBE18",
            "classification": "pg"
          },
          "image": "https://s3.fr-par.scw.cloud/parlameter/ljubljana/igor-horvat.png"
        },
        "start_time": "2021-10-18T15:30:00",
        "votes": [],
        "session": {
          "name": "26. seja Mestnega sveta MOL",
          "id": 3773,
          "start_time": "2021-10-18T15:30:00",
          "end_time": null,
          "organizations": [
            {
              "name": "Mestni svet MOL",
              "acronym": null,
              "slug": "1-mestni-svet-mol",
              "color": "#09A2CC",
              "classification": "root"
            }
          ],
          "classification": "regular",
          "in_review": false,
          "has_transcript": true
        }
      },
      {
        "id": 67520,
        "content": "Hvala za besedo. Odbor za urejanje prostora je na 7. korespondenčni seji ni sprejel sklep, kateri je bil podan, in sicer je za glasoval eden, proti sta glasovala dva od štirih navzočih, ki so podali glas. Jaz bi pa ob tem samo mogoče dal opazko, da v [...]",
        "the_order": 36,
        "person": {
          "slug": "235-igor-horvat",
          "name": "Igor Horvat",
          "honorific_prefix": null,
          "honorific_suffix": null,
          "preferred_pronoun": "he",
          "group": {
            "name": "Slovenska demokratska stranka",
            "acronym": "SDS",
            "slug": "21-slovenska-demokratska-stranka",
            "color": "#CCBE18",
            "classification": "pg"
          },
          "image": "https://s3.fr-par.scw.cloud/parlameter/ljubljana/igor-horvat.png"
        },
        "start_time": "2021-10-18T15:30:00",
        "votes": [],
        "session": {
          "name": "26. seja Mestnega sveta MOL",
          "id": 3773,
          "start_time": "2021-10-18T15:30:00",
          "end_time": null,
          "organizations": [
            {
              "name": "Mestni svet MOL",
              "acronym": null,
              "slug": "1-mestni-svet-mol",
              "color": "#09A2CC",
              "classification": "root"
            }
          ],
          "classification": "regular",
          "in_review": false,
          "has_transcript": true
        }
      },
      {
        "id": 67647,
        "content": "Hvala za besedo. Odbor za urejanje prostora je na 17. redni seji podprl Predlog Sklepa o lokacijski preveritvi za dele enot urejanja prostora GO-234, GO-381, MO-224 in MO-225. Sklep je bil sprejet soglasno od 5-ih navzočih članov odbora. Hvala.",
        "the_order": 64,
        "person": {
          "slug": "235-igor-horvat",
          "name": "Igor Horvat",
          "honorific_prefix": null,
          "honorific_suffix": null,
          "preferred_pronoun": "he",
          "group": {
            "name": "Slovenska demokratska stranka",
            "acronym": "SDS",
            "slug": "21-slovenska-demokratska-stranka",
            "color": "#CCBE18",
            "classification": "pg"
          },
          "image": "https://s3.fr-par.scw.cloud/parlameter/ljubljana/igor-horvat.png"
        },
        "start_time": "2021-09-27T15:30:00",
        "votes": [],
        "session": {
          "name": "25. seja Mestnega sveta MOL",
          "id": 3774,
          "start_time": "2021-09-27T15:30:00",
          "end_time": null,
          "organizations": [
            {
              "name": "Mestni svet MOL",
              "acronym": null,
              "slug": "1-mestni-svet-mol",
              "color": "#09A2CC",
              "classification": "root"
            }
          ],
          "classification": "regular",
          "in_review": false,
          "has_transcript": true
        }
      },
      {
        "id": 67638,
        "content": "Hvala za besedo. Odbor za urejanje prostora je na 17. redni seji sprejel sklep, da podpira Predlog Sklepa o lokacijski preveritvi za del območja OPPN 191 Podutik Kamna gorica – zahod in 34 Cesta Andrej Bitenca – Podutiška. Sklep je bil sprejet soglas [...]",
        "the_order": 55,
        "person": {
          "slug": "235-igor-horvat",
          "name": "Igor Horvat",
          "honorific_prefix": null,
          "honorific_suffix": null,
          "preferred_pronoun": "he",
          "group": {
            "name": "Slovenska demokratska stranka",
            "acronym": "SDS",
            "slug": "21-slovenska-demokratska-stranka",
            "color": "#CCBE18",
            "classification": "pg"
          },
          "image": "https://s3.fr-par.scw.cloud/parlameter/ljubljana/igor-horvat.png"
        },
        "start_time": "2021-09-27T15:30:00",
        "votes": [],
        "session": {
          "name": "25. seja Mestnega sveta MOL",
          "id": 3774,
          "start_time": "2021-09-27T15:30:00",
          "end_time": null,
          "organizations": [
            {
              "name": "Mestni svet MOL",
              "acronym": null,
              "slug": "1-mestni-svet-mol",
              "color": "#09A2CC",
              "classification": "root"
            }
          ],
          "classification": "regular",
          "in_review": false,
          "has_transcript": true
        }
      }
    ],
    "mandate": {
      "description": "MOL mandat ta naš, kaj je že",
      "beginning": "2018-12-17T12:00:00"
    },
    "person": {
      "slug": "235-igor-horvat",
      "name": "Igor Horvat",
      "honorific_prefix": null,
      "honorific_suffix": null,
      "preferred_pronoun": "he",
      "group": {
        "name": "Slovenska demokratska stranka",
        "acronym": "SDS",
        "slug": "21-slovenska-demokratska-stranka",
        "color": "#CCBE18",
        "classification": "pg"
      },
      "image": "https://s3.fr-par.scw.cloud/parlameter/ljubljana/igor-horvat.png"
    },
    "count": 73,
    "pages": 8,
    "page": 1,
    "per_page": 10
  }
}
