{
  "url": "https://parladata.lb.djnd.si/v3/cards/search/votes/?id=1&text=mestni",
  "data": {
    "results": [
      {
        "all_votes": {
          "absent": 15,
          "abstain": 0,
          "for": 30,
          "against": 0
        },
        "passed": true,
        "id": 2071,
        "is_outlier": true,
        "has_outliers": true,
        "has_named_votes": true,
        "title": "fire lighting"
      },
      {
        "all_votes": {
          "absent": 19,
          "abstain": 0,
          "for": 26,
          "against": 0
        },
        "passed": false,
        "id": 2070,
        "is_outlier": false,
        "has_outliers": true,
        "has_named_votes": true,
        "title": "lightning"
      },
      {
        "all_votes": {
          "absent": 15,
          "abstain": 0,
          "for": 30,
          "against": 0
        },
        "passed": null,
        "id": 2068,
        "is_outlier": false,
        "has_outliers": false,
        "has_named_votes": false,
        "title": "hand"
      },
      {
        "all_votes": {
          "absent": 15,
          "abstain": 0,
          "for": 30,
          "against": 0
        },
        "passed": true,
        "id": 2063,
        "is_outlier": true,
        "has_outliers": true,
        "has_named_votes": false,
        "title": "fire hand lightning"
      },
      {
        "all_votes": {
          "absent": 14,
          "abstain": 0,
          "for": 31,
          "against": 0
        },
        "passed": true,
        "id": 2059,
        "is_outlier": false,
        "has_outliers": true,
        "has_named_votes": false,
        "title": "hand lightning"
      },
      {
        "all_votes": {
          "absent": 11,
          "abstain": 1,
          "for": 33,
          "against": 0
        },
        "passed": true,
        "id": 2056,
        "is_outlier": false,
        "has_outliers": false,
        "has_named_votes": true,
        "title": "A) PREDLOG SKLEPA O SOGLASJU K DOLOČITVI DELA PLAČE ZA REDNO DELOVNO USPEŠNOST RAVNATELJIC IN RAVNATELJEV VRTCEV MESTNE OBČINA LJUBLJANA ZA LETO 2020 SKLEPA k točki A: Mestni svet Mestne občine Ljubljana sprejme predlog Sklepa o soglasju k določitvi dela plače za redno delovno uspešnost ravnateljic in ravnateljev vrtcev Mestne občina Ljubljana za leto 2020."
      },
      {
        "all_votes": {
          "absent": 16,
          "abstain": 0,
          "for": 29,
          "against": 0
        },
        "passed": true,
        "id": 2053,
        "is_outlier": false,
        "has_outliers": false,
        "has_named_votes": true,
        "title": "B) PREDLOG SKLEPA O SOGLASJU K DOLOČITVI DELA PLAČE ZA DELOVNO USPEŠNOST DIREKTORICI JAVNEGA ZAVODA MALA ULICA – CENTRA ZA OTROKE IN DRUŽINE V LJUBLJANI IZ NASLOVA POVEČANEGA OBSEGA DELA PREDLOG SKLEPA k točki B: Mestni svet Mestne občine Ljubljana sprejme predlog Sklepa o soglasju k določitvi dela plače za delovno uspešnost direktorici Javnega zavoda Mala ulica – Centra za otroke in družine v Ljubljani iz naslova povečanega obsega dela."
      },
      {
        "all_votes": {
          "absent": 10,
          "abstain": 3,
          "for": 32,
          "against": 0
        },
        "passed": true,
        "id": 2050,
        "is_outlier": false,
        "has_outliers": false,
        "has_named_votes": true,
        "title": "A) PREDLOGI SKLEPOV O SOGLASJU K DOLOČITVI DELA PLAČE ZA DELOVNO USPEŠNOST         RAVNATELJICAM             IN     RAVNATELJEM        JAVNIH         VZGOJNO- IZOBRAŽEVALNIH ZAVODOV: OSNOVNA ŠOLA FRANCETA BEVKA, OSNOVNA ŠOLA KAŠELJ, OSNOVNA ŠOLA KOLEZIJA, OSNOVNA ŠOLA LIVADA, OSNOVNA ŠOLA MAJDE VRHOVNIK, OSNOVNA ŠOLA MILANA ŠUŠTARŠIČA, OSNOVNA ŠOLA MIRANA JARCA, OSNOVNA ŠOLA MIŠKA KRANJCA, OSNOVNA ŠOLA NARODNEGA HEROJA MAKSA PEČARJA, OSNOVNA ŠOLA NOVE FUŽINE, OSNOVNA ŠOLA PREŽIHOVEGA VORANCA, OSNOVNA ŠOLA RIHARDA JAKOPIČA, OSNOVNA ŠOLA SAVSKO NASELJE, OSNOVNA ŠOLA SOSTRO, OSNOVNA ŠOLA VRHOVCI IZ NASLOVA POVEČANEGA OBSEGA DELA PREDLOG SKLEPA k točki A: Mestni svet Mestne občine Ljubljana sprejme predloge sklepov o soglasju k določitvi dela plače za delovno uspešnost ravnateljicam in ravnateljem javnih vzgojno-izobraževalnih zavodov: Osnovna šola Franceta Bevka, Osnovna šola Kašelj, Osnovna šola Kolezija, Osnovna šola Livada, Osnovna šol"
      },
      {
        "all_votes": {
          "absent": 14,
          "abstain": 0,
          "for": 31,
          "against": 0
        },
        "passed": true,
        "id": 2047,
        "is_outlier": false,
        "has_outliers": false,
        "has_named_votes": true,
        "title": "A) PREDLOG SKLEPA O SOGLASJU K DOLOČITVI DELA PLAČE ZA DELOVNO USPEŠNOST DIREKTORICI ZAVODA ZA OSKRBO NA DOMU ZA OBDOBJE OD 1. 11. 2020 - 31. 12. 2021 IZ NASLOVA POVEČANEGA OBSEGA DELA B) PREDLOG SKLEPA O SOGLASJU K DOLOČITVI DELA PLAČE ZA REDNO DELOVNO USPEŠNOST DIREKTORICI ZAVODA ZA OSKRBO NA DOMU ZA OBDOBJE OD 1. 7. 2020 - 31. 12. 2020 PREDLOG SKLEPA k točki B: Mestni svet Mestne občine Ljubljana sprejme predlog Sklepa o soglasju k določitvi dela plače za redno delovno uspešnost direktorici Zavoda za oskrbo na domu za obdobje od 1. 7. 2020 - 31. 12. 2020."
      },
      {
        "all_votes": {
          "absent": 13,
          "abstain": 9,
          "for": 23,
          "against": 0
        },
        "passed": true,
        "id": 2044,
        "is_outlier": false,
        "has_outliers": false,
        "has_named_votes": true,
        "title": "A) PREDLOG SKLEPA O SOGLASJU K DOLOČITVI DELA PLAČE ZA DELOVNO USPEŠNOST DIREKTORICI ZAVODA ZA OSKRBO NA DOMU ZA OBDOBJE OD 1. 11. 2020 - 31. 12. 2021 IZ NASLOVA POVEČANEGA OBSEGA DELA B) PREDLOG SKLEPA O SOGLASJU K DOLOČITVI DELA PLAČE ZA REDNO DELOVNO USPEŠNOST DIREKTORICI ZAVODA ZA OSKRBO NA DOMU ZA OBDOBJE OD 1. 7. 2020 - 31. 12. 2020 PREDLOG SKLEPA k točki A: Mestni svet Mestne občine Ljubljana sprejme predlog Sklepa o soglasju k določitvi dela plače za delovno uspešnost direktorici Zavoda za oskrbo na domu za obdobje od 1. 11. 2020 - 31. 12. 2021 iz naslova povečanega obsega dela."
      }
    ],
    "mandate": {
      "description": "MOL mandat ta naš, kaj je že",
      "beginning": null
    },
    "count": 351,
    "pages": 36,
    "page": 1,
    "per_page": 10
  }
}
