{
  "id": 81,
  "url": "http://localhost:8000/v3/cards/person/recent-activity/?id=81",
  "data": {
    "results": [
      {
        "vote": {
          "all_votes": {
            "for": 45,
            "against": 40,
            "abstain": 1,
            "absent": 4,
            "did not vote": 0
          },
          "passed": true,
          "id": 2922,
          "is_outlier": false,
          "has_outliers": false,
          "has_named_votes": true,
          "title": "Zakon o spremembah in dopolnitvah Zakona o dohodnini - Glasovanje o zakonu v celoti",
          "timestamp": "2022-03-11T15:55:53",
          "session": {
            "name": "98. izredna seja",
            "id": 2280,
            "start_time": "2022-03-11T00:00:00",
            "end_time": null,
            "organizations": [
              {
                "name": "Državni zbor",
                "acronym": "DZ",
                "slug": "1-drzavni-zbor",
                "color": "#09A2CC",
                "classification": "root",
                "is_in_coalition": false
              }
            ],
            "classification": "irregular",
            "in_review": true,
            "has_transcript": false,
            "has_minutes": false,
            "has_legislation": false
          }
        },
        "option": "for",
        "type": "ballot"
      },
      {
        "vote": {
          "all_votes": {
            "for": 20,
            "against": 52,
            "abstain": 14,
            "absent": 4,
            "did not vote": 0
          },
          "passed": false,
          "id": 2923,
          "is_outlier": false,
          "has_outliers": false,
          "has_named_votes": true,
          "title": "Zakon o spremembah in dopolnitvah Zakona o dohodnini - Amandma: K 15. členu 6. 12. 2021 [Levica - Poslanska skupina Levica]",
          "timestamp": "2022-03-11T15:42:58",
          "session": {
            "name": "98. izredna seja",
            "id": 2280,
            "start_time": "2022-03-11T00:00:00",
            "end_time": null,
            "organizations": [
              {
                "name": "Državni zbor",
                "acronym": "DZ",
                "slug": "1-drzavni-zbor",
                "color": "#09A2CC",
                "classification": "root",
                "is_in_coalition": false
              }
            ],
            "classification": "irregular",
            "in_review": true,
            "has_transcript": false,
            "has_minutes": false,
            "has_legislation": false
          }
        },
        "option": "against",
        "type": "ballot"
      },
      {
        "vote": {
          "all_votes": {
            "for": 20,
            "against": 46,
            "abstain": 20,
            "absent": 4,
            "did not vote": 0
          },
          "passed": false,
          "id": 2924,
          "is_outlier": false,
          "has_outliers": false,
          "has_named_votes": true,
          "title": "Zakon o spremembah in dopolnitvah Zakona o dohodnini - Amandma: K 4. členu 6. 12. 2021 [Levica - Poslanska skupina Levica]",
          "timestamp": "2022-03-11T15:42:32",
          "session": {
            "name": "98. izredna seja",
            "id": 2280,
            "start_time": "2022-03-11T00:00:00",
            "end_time": null,
            "organizations": [
              {
                "name": "Državni zbor",
                "acronym": "DZ",
                "slug": "1-drzavni-zbor",
                "color": "#09A2CC",
                "classification": "root",
                "is_in_coalition": false
              }
            ],
            "classification": "irregular",
            "in_review": true,
            "has_transcript": false,
            "has_minutes": false,
            "has_legislation": false
          }
        },
        "option": "against",
        "type": "ballot"
      },
      {
        "vote": {
          "all_votes": {
            "for": 8,
            "against": 51,
            "abstain": 27,
            "absent": 4,
            "did not vote": 0
          },
          "passed": false,
          "id": 2925,
          "is_outlier": false,
          "has_outliers": false,
          "has_named_votes": true,
          "title": "Zakon o spremembah in dopolnitvah Zakona o dohodnini - Amandma: K 3. členu 6. 12. 2021 [Levica - Poslanska skupina Levica]",
          "timestamp": "2022-03-11T15:42:04",
          "session": {
            "name": "98. izredna seja",
            "id": 2280,
            "start_time": "2022-03-11T00:00:00",
            "end_time": null,
            "organizations": [
              {
                "name": "Državni zbor",
                "acronym": "DZ",
                "slug": "1-drzavni-zbor",
                "color": "#09A2CC",
                "classification": "root",
                "is_in_coalition": false
              }
            ],
            "classification": "irregular",
            "in_review": true,
            "has_transcript": false,
            "has_minutes": false,
            "has_legislation": false
          }
        },
        "option": "against",
        "type": "ballot"
      },
      {
        "vote": {
          "all_votes": {
            "for": 54,
            "against": 0,
            "abstain": 32,
            "absent": 4,
            "did not vote": 0
          },
          "passed": true,
          "id": 2926,
          "is_outlier": false,
          "has_outliers": false,
          "has_named_votes": true,
          "title": "Zakon o spremembah in dopolnitvah Zakona o gasilstvu - Glasovanje o zakonu v celoti",
          "timestamp": "2022-03-11T15:41:00",
          "session": {
            "name": "98. izredna seja",
            "id": 2280,
            "start_time": "2022-03-11T00:00:00",
            "end_time": null,
            "organizations": [
              {
                "name": "Državni zbor",
                "acronym": "DZ",
                "slug": "1-drzavni-zbor",
                "color": "#09A2CC",
                "classification": "root",
                "is_in_coalition": false
              }
            ],
            "classification": "irregular",
            "in_review": true,
            "has_transcript": false,
            "has_minutes": false,
            "has_legislation": false
          }
        },
        "option": "for",
        "type": "ballot"
      },
      {
        "vote": {
          "all_votes": {
            "for": 78,
            "against": 0,
            "abstain": 5,
            "absent": 7,
            "did not vote": 0
          },
          "passed": true,
          "id": 3441,
          "is_outlier": false,
          "has_outliers": false,
          "has_named_votes": true,
          "title": "Zakon o spremembah in dopolnitvah Zakona o rudarstvu - Sklep da besedilo predloga za tretjo obravnavo pripravi Vlada",
          "timestamp": "2022-03-11T15:40:08",
          "session": {
            "name": "98. izredna seja",
            "id": 2280,
            "start_time": "2022-03-11T00:00:00",
            "end_time": null,
            "organizations": [
              {
                "name": "Državni zbor",
                "acronym": "DZ",
                "slug": "1-drzavni-zbor",
                "color": "#09A2CC",
                "classification": "root",
                "is_in_coalition": false
              }
            ],
            "classification": "irregular",
            "in_review": true,
            "has_transcript": false,
            "has_minutes": false,
            "has_legislation": false
          }
        },
        "option": "for",
        "type": "ballot"
      },
      {
        "vote": {
          "all_votes": {
            "for": 45,
            "against": 1,
            "abstain": 40,
            "absent": 4,
            "did not vote": 0
          },
          "passed": true,
          "id": 2927,
          "is_outlier": false,
          "has_outliers": false,
          "has_named_votes": true,
          "title": "Zakon o spremembah in dopolnitvah Zakona o rudarstvu - Amandma: K 67. členu 11. 03. 2022 [SDS - Poslanska skupina Slovenske demokratske stranke, NSi - Poslanska skupina Nova Slovenija - krščanski demokrati, Konkretno - Poslanska skupina Konkretno]",
          "timestamp": "2022-03-11T15:39:24",
          "session": {
            "name": "98. izredna seja",
            "id": 2280,
            "start_time": "2022-03-11T00:00:00",
            "end_time": null,
            "organizations": [
              {
                "name": "Državni zbor",
                "acronym": "DZ",
                "slug": "1-drzavni-zbor",
                "color": "#09A2CC",
                "classification": "root",
                "is_in_coalition": false
              }
            ],
            "classification": "irregular",
            "in_review": true,
            "has_transcript": false,
            "has_minutes": false,
            "has_legislation": false
          }
        },
        "option": "for",
        "type": "ballot"
      },
      {
        "vote": {
          "all_votes": {
            "for": 3,
            "against": 51,
            "abstain": 29,
            "absent": 7,
            "did not vote": 0
          },
          "passed": false,
          "id": 2928,
          "is_outlier": false,
          "has_outliers": false,
          "has_named_votes": true,
          "title": "Zakon o spremembah in dopolnitvah Zakona o rudarstvu - Amandma: K 60. členu 11. 03. 2022 [SNS - Poslanska skupina Slovenske nacionalne stranke]",
          "timestamp": "2022-03-11T15:36:38",
          "session": {
            "name": "98. izredna seja",
            "id": 2280,
            "start_time": "2022-03-11T00:00:00",
            "end_time": null,
            "organizations": [
              {
                "name": "Državni zbor",
                "acronym": "DZ",
                "slug": "1-drzavni-zbor",
                "color": "#09A2CC",
                "classification": "root",
                "is_in_coalition": false
              }
            ],
            "classification": "irregular",
            "in_review": true,
            "has_transcript": false,
            "has_minutes": false,
            "has_legislation": false
          }
        },
        "option": "against",
        "type": "ballot"
      },
      {
        "vote": {
          "all_votes": {
            "for": 23,
            "against": 46,
            "abstain": 17,
            "absent": 4,
            "did not vote": 0
          },
          "passed": false,
          "id": 2929,
          "is_outlier": false,
          "has_outliers": false,
          "has_named_votes": true,
          "title": "Zakon o spremembah in dopolnitvah Zakona o rudarstvu - Amandma: K 60. členu 10. 03. 2022 [LMŠ - Poslanska skupina Liste Marjana Šarca, Levica - Poslanska skupina Levica]",
          "timestamp": "2022-03-11T15:36:10",
          "session": {
            "name": "98. izredna seja",
            "id": 2280,
            "start_time": "2022-03-11T00:00:00",
            "end_time": null,
            "organizations": [
              {
                "name": "Državni zbor",
                "acronym": "DZ",
                "slug": "1-drzavni-zbor",
                "color": "#09A2CC",
                "classification": "root",
                "is_in_coalition": false
              }
            ],
            "classification": "irregular",
            "in_review": true,
            "has_transcript": false,
            "has_minutes": false,
            "has_legislation": false
          }
        },
        "option": "against",
        "type": "ballot"
      },
      {
        "vote": {
          "all_votes": {
            "for": 46,
            "against": 0,
            "abstain": 38,
            "absent": 6,
            "did not vote": 0
          },
          "passed": true,
          "id": 2930,
          "is_outlier": false,
          "has_outliers": false,
          "has_named_votes": true,
          "title": "Zakon o spremembah in dopolnitvah Zakona o rudarstvu - Amandma: K 58. členu 11. 03. 2022 [SDS - Poslanska skupina Slovenske demokratske stranke, NSi - Poslanska skupina Nova Slovenija - krščanski demokrati, Konkretno - Poslanska skupina Konkretno]",
          "timestamp": "2022-03-11T15:31:22",
          "session": {
            "name": "98. izredna seja",
            "id": 2280,
            "start_time": "2022-03-11T00:00:00",
            "end_time": null,
            "organizations": [
              {
                "name": "Državni zbor",
                "acronym": "DZ",
                "slug": "1-drzavni-zbor",
                "color": "#09A2CC",
                "classification": "root",
                "is_in_coalition": false
              }
            ],
            "classification": "irregular",
            "in_review": true,
            "has_transcript": false,
            "has_minutes": false,
            "has_legislation": false
          }
        },
        "option": "for",
        "type": "ballot"
      }
    ],
    "mandate": {
      "description": "VIII",
      "beginning": null
    },
    "person": {
      "slug": "81-aleksander-rebersek",
      "name": "Aleksander Reberšek",
      "honorific_prefix": null,
      "honorific_suffix": null,
      "preferred_pronoun": "he",
      "group": {
        "name": "Nova Slovenija - Krščanski demokrati",
        "acronym": "NSi",
        "slug": "7-nova-slovenija-krscanski-demokrati",
        "color": "#31A8B1",
        "classification": "pg",
        "is_in_coalition": true
      },
      "image": "/media/nsi-aleksander-rebersek.jpg"
    },
    "count": 859,
    "pages": 86,
    "page": 1,
    "per_page": 10
  }
}
