{
  "url": "https://parladata.lb.djnd.si/v3/cards/group/votes/?id=21",
  "data": {
    "results": [
      {
        "motion": {
          "id": "2437",
          "tags": [],
          "text": "Mestni svet Mestne občine Ljubljana sprejme dopolnjeni osnutek Odloka o občinskem podrobnem prostorskem načrtu 182 Pod hribom – del skupaj s pripombami.",
          "result": "True",
          "classification": null
        },
        "option": "against",
        "timestamp": "2021-07-05T18:33:05",
        "session": {
          "name": "24. seja Mestnega sveta MOL",
          "id": 80,
          "start_time": "2021-07-05T15:30:00",
          "end_time": null,
          "organizations": [
            {
              "name": "Mestni svet MOL",
              "acronym": null,
              "slug": "1-mestni-svet-mol"
            }
          ],
          "classification": null,
          "in_review": false
        }
      },
      {
        "motion": {
          "id": "2436",
          "tags": [],
          "text": "Mestni svet Mestne občine Ljubljana sprejme dopolnjeni osnutek Odloka o občinskem podrobnem prostorskem načrtu 266 Tacen –zahod – severni del skupaj s pripombami.",
          "result": "True",
          "classification": null
        },
        "option": "for",
        "timestamp": "2021-07-05T18:21:15",
        "session": {
          "name": "24. seja Mestnega sveta MOL",
          "id": 80,
          "start_time": "2021-07-05T15:30:00",
          "end_time": null,
          "organizations": [
            {
              "name": "Mestni svet MOL",
              "acronym": null,
              "slug": "1-mestni-svet-mol"
            }
          ],
          "classification": null,
          "in_review": false
        }
      },
      {
        "motion": {
          "id": "2435",
          "tags": [],
          "text": "Mestni svet Mestne občine Ljubljana sprejme predlog Odloka o občinskem podrobnem prostorskem načrtu 385 Zvezna ulica.",
          "result": "True",
          "classification": null
        },
        "option": "for",
        "timestamp": "2021-07-05T18:12:38",
        "session": {
          "name": "24. seja Mestnega sveta MOL",
          "id": 80,
          "start_time": "2021-07-05T15:30:00",
          "end_time": null,
          "organizations": [
            {
              "name": "Mestni svet MOL",
              "acronym": null,
              "slug": "1-mestni-svet-mol"
            }
          ],
          "classification": null,
          "in_review": false
        }
      },
      {
        "motion": {
          "id": "2434",
          "tags": [],
          "text": "Mestni svet Mestne občine Ljubljana sprejme predlog Odloka o občinskem podrobnem prostorskem načrtu 121 Poslovna cona Vižmarje.",
          "result": "True",
          "classification": null
        },
        "option": "for",
        "timestamp": "2021-07-05T18:07:42",
        "session": {
          "name": "24. seja Mestnega sveta MOL",
          "id": 80,
          "start_time": "2021-07-05T15:30:00",
          "end_time": null,
          "organizations": [
            {
              "name": "Mestni svet MOL",
              "acronym": null,
              "slug": "1-mestni-svet-mol"
            }
          ],
          "classification": null,
          "in_review": false
        }
      },
      {
        "motion": {
          "id": "2433",
          "tags": [],
          "text": "Mestni svet Mestne občine Ljubljana sprejme predlog Odloka o spremembah in dopolnitvah Odloka o zazidalnem načrtu za območji urejanja MS 1/2-1 in MR 1/1 ZELENA JAMA.",
          "result": "True",
          "classification": null
        },
        "option": "for",
        "timestamp": "2021-07-05T18:03:12",
        "session": {
          "name": "24. seja Mestnega sveta MOL",
          "id": 80,
          "start_time": "2021-07-05T15:30:00",
          "end_time": null,
          "organizations": [
            {
              "name": "Mestni svet MOL",
              "acronym": null,
              "slug": "1-mestni-svet-mol"
            }
          ],
          "classification": null,
          "in_review": false
        }
      },
      {
        "motion": {
          "id": "2432",
          "tags": [],
          "text": "Mestni svet Mestne občine Ljubljana sprejme predlog Sklepa o lokacijski preveritvi za enoto urejanja prostora GO-225.",
          "result": "True",
          "classification": null
        },
        "option": "for",
        "timestamp": "2021-07-05T17:58:06",
        "session": {
          "name": "24. seja Mestnega sveta MOL",
          "id": 80,
          "start_time": "2021-07-05T15:30:00",
          "end_time": null,
          "organizations": [
            {
              "name": "Mestni svet MOL",
              "acronym": null,
              "slug": "1-mestni-svet-mol"
            }
          ],
          "classification": null,
          "in_review": false
        }
      },
      {
        "motion": {
          "id": "2431",
          "tags": [],
          "text": "Mestni svet Mestne občine Ljubljana sprejme predlog Sklepa o lokacijski preveritvi za del območja, ki se ureja z Odlokom o občinskem podrobnem prostorskem načrtu 311 Zalog (za prostorsko enoto PE1).",
          "result": "True",
          "classification": null
        },
        "option": "for",
        "timestamp": "2021-07-05T17:54:06",
        "session": {
          "name": "24. seja Mestnega sveta MOL",
          "id": 80,
          "start_time": "2021-07-05T15:30:00",
          "end_time": null,
          "organizations": [
            {
              "name": "Mestni svet MOL",
              "acronym": null,
              "slug": "1-mestni-svet-mol"
            }
          ],
          "classification": null,
          "in_review": false
        }
      },
      {
        "motion": {
          "id": "2430",
          "tags": [],
          "text": "C) PREDLOG ODLOKA O DOPOLNITVAH ODLOKA O POSEBNI RABI JAVNIH POVRŠIN V LASTI MESTNE OBČINE LJUBLJANA S PREDLOGOM ZA HITRI POSTOPEK PREDLOG SKLEPA k točki C: Mestni svet Mestne občine Ljubljana sprejme predlog Odloka o dopolnitvah Odloka o posebni rabi javnih površin v lasti Mestne občine Ljubljana.",
          "result": "True",
          "classification": null
        },
        "option": "for",
        "timestamp": "2021-07-05T17:45:10",
        "session": {
          "name": "24. seja Mestnega sveta MOL",
          "id": 80,
          "start_time": "2021-07-05T15:30:00",
          "end_time": null,
          "organizations": [
            {
              "name": "Mestni svet MOL",
              "acronym": null,
              "slug": "1-mestni-svet-mol"
            }
          ],
          "classification": null,
          "in_review": false
        }
      },
      {
        "motion": {
          "id": "2428",
          "tags": [],
          "text": "B) PREDLOG ODLOKA O SPREMEMBI IN DOPOLNITVI ODLOKA O OGLAŠEVANJU S PREDLOGOM ZA HITRI POSTOPEK PREDLOG SKLEPA k točki B: Mestni svet Mestne občine Ljubljana sprejme predlog Odloka o spremembi in dopolnitvi Odloka o oglaševanju.",
          "result": "True",
          "classification": null
        },
        "option": "for",
        "timestamp": "2021-07-05T17:44:59",
        "session": {
          "name": "24. seja Mestnega sveta MOL",
          "id": 80,
          "start_time": "2021-07-05T15:30:00",
          "end_time": null,
          "organizations": [
            {
              "name": "Mestni svet MOL",
              "acronym": null,
              "slug": "1-mestni-svet-mol"
            }
          ],
          "classification": null,
          "in_review": false
        }
      },
      {
        "motion": {
          "id": "2426",
          "tags": [],
          "text": "A) PREDLOG ODLOKA O SPREMEMBI IN DOPOLNITVI ODLOKA O DOLOČITVI PLOVBNEGA REŽIMA S PREDLOGOM ZA HITRI POSTOPEK PREDLOG SKLEPA k točki A: Mestni svet Mestne občine Ljubljana sprejme predlog Odloka o spremembi in dopolnitvi Odloka o določitvi plovbnega režima.",
          "result": "True",
          "classification": null
        },
        "option": "for",
        "timestamp": "2021-07-05T17:44:45",
        "session": {
          "name": "24. seja Mestnega sveta MOL",
          "id": 80,
          "start_time": "2021-07-05T15:30:00",
          "end_time": null,
          "organizations": [
            {
              "name": "Mestni svet MOL",
              "acronym": null,
              "slug": "1-mestni-svet-mol"
            }
          ],
          "classification": null,
          "in_review": false
        }
      }
    ],
    "mandate": {
      "description": "MOL mandat ta naš, kaj je že",
      "beginning": null
    },
    "group": {
      "name": "Slovenska demokratska stranka ",
      "acronym": "",
      "slug": "21-slovenska-demokratska-stranka"
    },
    "count": 560,
    "pages": 56,
    "page": 1,
    "per_page": 10
  }
}
