{
  "url": "https://parladata.lb.djnd.si/v3/cards/group/speeches/?id=16",
  "id": 16,
  "data": {
    "results": [
      {
        "id": 67175,
        "content": "Ja, ja. Tukaj sem. Hvala lepa za besedo. Hvala lepa za besedo. Pozdravljam vse skupaj. Sporočam oziroma midva bova glasovala proti razširitvi dnevnega reda. Ker se mora ta reč oziroma ta problematika urejati nekje drugje, ne več v mestnem svetu. Hval [...]",
        "the_order": 2,
        "person": {
          "slug": "219-mojca-sojar",
          "name": "Mojca Sojar",
          "honorific_prefix": null,
          "honorific_suffix": null,
          "preferred_pronoun": "she",
          "group": {
            "name": "Nova Slovenija – Krščanski demokrati",
            "acronym": "NSi",
            "slug": "16-nova-slovenija-krscanski-demokrati",
            "color": "#665F0C",
            "classification": "pg"
          },
          "image": "https://s3.fr-par.scw.cloud/parlameter/ljubljana/mojca-sojar.png"
        },
        "start_time": "2021-11-15T15:30:00",
        "votes": [],
        "session": {
          "name": "27. seja Mestnega sveta MOL",
          "id": 3772,
          "start_time": "2021-11-15T15:30:00",
          "end_time": null,
          "organizations": [
            {
              "name": "Mestni svet MOL",
              "acronym": null,
              "slug": "1-mestni-svet-mol",
              "color": "#09A2CC",
              "classification": "root"
            }
          ],
          "classification": "regular",
          "in_review": false,
          "has_transcript": true
        }
      },
      {
        "id": 67235,
        "content": "Hvala za besedo. Najprej moram pohvaliti Svetniški klub Levica, ker so zelo pridni pri pripravi amandmajev, se zelo potrudijo za te amandmaje, hkrati pa se strinjam s kolegico Škrinjarjevo, da ko hodiš po Ljubljani, kamorkoli praktično pogledaš se ne [...]",
        "the_order": 62,
        "person": {
          "slug": "219-mojca-sojar",
          "name": "Mojca Sojar",
          "honorific_prefix": null,
          "honorific_suffix": null,
          "preferred_pronoun": "she",
          "group": {
            "name": "Nova Slovenija – Krščanski demokrati",
            "acronym": "NSi",
            "slug": "16-nova-slovenija-krscanski-demokrati",
            "color": "#665F0C",
            "classification": "pg"
          },
          "image": "https://s3.fr-par.scw.cloud/parlameter/ljubljana/mojca-sojar.png"
        },
        "start_time": "2021-11-15T15:30:00",
        "votes": [],
        "session": {
          "name": "27. seja Mestnega sveta MOL",
          "id": 3772,
          "start_time": "2021-11-15T15:30:00",
          "end_time": null,
          "organizations": [
            {
              "name": "Mestni svet MOL",
              "acronym": null,
              "slug": "1-mestni-svet-mol",
              "color": "#09A2CC",
              "classification": "root"
            }
          ],
          "classification": "regular",
          "in_review": false,
          "has_transcript": true
        }
      },
      {
        "id": 67378,
        "content": "Ker ste vi, župan, jo kar obrnili, da je ona potem šla.",
        "the_order": 205,
        "person": {
          "slug": "219-mojca-sojar",
          "name": "Mojca Sojar",
          "honorific_prefix": null,
          "honorific_suffix": null,
          "preferred_pronoun": "she",
          "group": {
            "name": "Nova Slovenija – Krščanski demokrati",
            "acronym": "NSi",
            "slug": "16-nova-slovenija-krscanski-demokrati",
            "color": "#665F0C",
            "classification": "pg"
          },
          "image": "https://s3.fr-par.scw.cloud/parlameter/ljubljana/mojca-sojar.png"
        },
        "start_time": "2021-11-15T15:30:00",
        "votes": [],
        "session": {
          "name": "27. seja Mestnega sveta MOL",
          "id": 3772,
          "start_time": "2021-11-15T15:30:00",
          "end_time": null,
          "organizations": [
            {
              "name": "Mestni svet MOL",
              "acronym": null,
              "slug": "1-mestni-svet-mol",
              "color": "#09A2CC",
              "classification": "root"
            }
          ],
          "classification": "regular",
          "in_review": false,
          "has_transcript": true
        }
      },
      {
        "id": 67380,
        "content": "Hvala za besedo. Nekje kroži zdaj ta podatek, koliko pa je osebnih zdravnikov oziroma zdravnikov družinske medicine v Ljubljani s koncesijo? Koliko jih v bistvu ima polovično koncesijo? Koliko jih je bolniško odsotnih, koliko je tega? In v bistvu bi  [...]",
        "the_order": 207,
        "person": {
          "slug": "217-jozef-horvat",
          "name": "Jožef Horvat",
          "honorific_prefix": null,
          "honorific_suffix": null,
          "preferred_pronoun": "he",
          "group": {
            "name": "Nova Slovenija – Krščanski demokrati",
            "acronym": "NSi",
            "slug": "16-nova-slovenija-krscanski-demokrati",
            "color": "#665F0C",
            "classification": "pg"
          },
          "image": "https://s3.fr-par.scw.cloud/parlameter/ljubljana/jozef-horvat.png"
        },
        "start_time": "2021-11-15T15:30:00",
        "votes": [],
        "session": {
          "name": "27. seja Mestnega sveta MOL",
          "id": 3772,
          "start_time": "2021-11-15T15:30:00",
          "end_time": null,
          "organizations": [
            {
              "name": "Mestni svet MOL",
              "acronym": null,
              "slug": "1-mestni-svet-mol",
              "color": "#09A2CC",
              "classification": "root"
            }
          ],
          "classification": "regular",
          "in_review": false,
          "has_transcript": true
        }
      },
      {
        "id": 67382,
        "content": "Hvala. In, da bi si želeli potem tudi, mene je kar nekaj mladih zdravnikov specializantov spraševalo, če lahko dobijo koncesijo, če se lahko prijavijo?",
        "the_order": 209,
        "person": {
          "slug": "217-jozef-horvat",
          "name": "Jožef Horvat",
          "honorific_prefix": null,
          "honorific_suffix": null,
          "preferred_pronoun": "he",
          "group": {
            "name": "Nova Slovenija – Krščanski demokrati",
            "acronym": "NSi",
            "slug": "16-nova-slovenija-krscanski-demokrati",
            "color": "#665F0C",
            "classification": "pg"
          },
          "image": "https://s3.fr-par.scw.cloud/parlameter/ljubljana/jozef-horvat.png"
        },
        "start_time": "2021-11-15T15:30:00",
        "votes": [],
        "session": {
          "name": "27. seja Mestnega sveta MOL",
          "id": 3772,
          "start_time": "2021-11-15T15:30:00",
          "end_time": null,
          "organizations": [
            {
              "name": "Mestni svet MOL",
              "acronym": null,
              "slug": "1-mestni-svet-mol",
              "color": "#09A2CC",
              "classification": "root"
            }
          ],
          "classification": "regular",
          "in_review": false,
          "has_transcript": true
        }
      },
      {
        "id": 67384,
        "content": "Ja, ja, sej.",
        "the_order": 211,
        "person": {
          "slug": "217-jozef-horvat",
          "name": "Jožef Horvat",
          "honorific_prefix": null,
          "honorific_suffix": null,
          "preferred_pronoun": "he",
          "group": {
            "name": "Nova Slovenija – Krščanski demokrati",
            "acronym": "NSi",
            "slug": "16-nova-slovenija-krscanski-demokrati",
            "color": "#665F0C",
            "classification": "pg"
          },
          "image": "https://s3.fr-par.scw.cloud/parlameter/ljubljana/jozef-horvat.png"
        },
        "start_time": "2021-11-15T15:30:00",
        "votes": [],
        "session": {
          "name": "27. seja Mestnega sveta MOL",
          "id": 3772,
          "start_time": "2021-11-15T15:30:00",
          "end_time": null,
          "organizations": [
            {
              "name": "Mestni svet MOL",
              "acronym": null,
              "slug": "1-mestni-svet-mol",
              "color": "#09A2CC",
              "classification": "root"
            }
          ],
          "classification": "regular",
          "in_review": false,
          "has_transcript": true
        }
      },
      {
        "id": 67386,
        "content": "Jaz o tem govorim, da mladim ljudem je treba dati priložnost, ker bodo z velikim veseljem začeli delati. In o tem govorim, daj najprej si nalijmo čistega vina.",
        "the_order": 213,
        "person": {
          "slug": "217-jozef-horvat",
          "name": "Jožef Horvat",
          "honorific_prefix": null,
          "honorific_suffix": null,
          "preferred_pronoun": "he",
          "group": {
            "name": "Nova Slovenija – Krščanski demokrati",
            "acronym": "NSi",
            "slug": "16-nova-slovenija-krscanski-demokrati",
            "color": "#665F0C",
            "classification": "pg"
          },
          "image": "https://s3.fr-par.scw.cloud/parlameter/ljubljana/jozef-horvat.png"
        },
        "start_time": "2021-11-15T15:30:00",
        "votes": [],
        "session": {
          "name": "27. seja Mestnega sveta MOL",
          "id": 3772,
          "start_time": "2021-11-15T15:30:00",
          "end_time": null,
          "organizations": [
            {
              "name": "Mestni svet MOL",
              "acronym": null,
              "slug": "1-mestni-svet-mol",
              "color": "#09A2CC",
              "classification": "root"
            }
          ],
          "classification": "regular",
          "in_review": false,
          "has_transcript": true
        }
      },
      {
        "id": 67392,
        "content": "Jaz se opravičujem, če sem bil narobe razumljen. Govoril sem o specializantih, ki končujejo. Se pravi v roku meseca dni ali pa še manj bodo dobili status. In za te bi bilo primerno, da se jih tudi vzame kot prijave. To sem hotel povedati. Hvala lepa.",
        "the_order": 219,
        "person": {
          "slug": "217-jozef-horvat",
          "name": "Jožef Horvat",
          "honorific_prefix": null,
          "honorific_suffix": null,
          "preferred_pronoun": "he",
          "group": {
            "name": "Nova Slovenija – Krščanski demokrati",
            "acronym": "NSi",
            "slug": "16-nova-slovenija-krscanski-demokrati",
            "color": "#665F0C",
            "classification": "pg"
          },
          "image": "https://s3.fr-par.scw.cloud/parlameter/ljubljana/jozef-horvat.png"
        },
        "start_time": "2021-11-15T15:30:00",
        "votes": [],
        "session": {
          "name": "27. seja Mestnega sveta MOL",
          "id": 3772,
          "start_time": "2021-11-15T15:30:00",
          "end_time": null,
          "organizations": [
            {
              "name": "Mestni svet MOL",
              "acronym": null,
              "slug": "1-mestni-svet-mol",
              "color": "#09A2CC",
              "classification": "root"
            }
          ],
          "classification": "regular",
          "in_review": false,
          "has_transcript": true
        }
      },
      {
        "id": 67412,
        "content": "Hvala lepa. Kot sem že velikokrat opozoril, mi delamo, pa vsi ste proti temu, da bi širili avtoceste okoli mesta, pa dodatne pasove, ker s tem povečujemo promet. Jaz ne vem, a mi moramo za celo Slovenijo reševati stanovanjski problem. Vsak, ki nima s [...]",
        "the_order": 239,
        "person": {
          "slug": "217-jozef-horvat",
          "name": "Jožef Horvat",
          "honorific_prefix": null,
          "honorific_suffix": null,
          "preferred_pronoun": "he",
          "group": {
            "name": "Nova Slovenija – Krščanski demokrati",
            "acronym": "NSi",
            "slug": "16-nova-slovenija-krscanski-demokrati",
            "color": "#665F0C",
            "classification": "pg"
          },
          "image": "https://s3.fr-par.scw.cloud/parlameter/ljubljana/jozef-horvat.png"
        },
        "start_time": "2021-11-15T15:30:00",
        "votes": [],
        "session": {
          "name": "27. seja Mestnega sveta MOL",
          "id": 3772,
          "start_time": "2021-11-15T15:30:00",
          "end_time": null,
          "organizations": [
            {
              "name": "Mestni svet MOL",
              "acronym": null,
              "slug": "1-mestni-svet-mol",
              "color": "#09A2CC",
              "classification": "root"
            }
          ],
          "classification": "regular",
          "in_review": false,
          "has_transcript": true
        }
      },
      {
        "id": 67429,
        "content": "--105 m2, čeprav je tukaj zanimivo, ta stanovanja dobijo mladi do 29. leta, jaz pač ne poznam veliko družin, ki je do 29. leta že 6-članska. To so verjetno res redke izjeme. To pomeni, moje vprašanje – tudi tako velika stanovanja se gradijo neprofitn [...]",
        "the_order": 256,
        "person": {
          "slug": "219-mojca-sojar",
          "name": "Mojca Sojar",
          "honorific_prefix": null,
          "honorific_suffix": null,
          "preferred_pronoun": "she",
          "group": {
            "name": "Nova Slovenija – Krščanski demokrati",
            "acronym": "NSi",
            "slug": "16-nova-slovenija-krscanski-demokrati",
            "color": "#665F0C",
            "classification": "pg"
          },
          "image": "https://s3.fr-par.scw.cloud/parlameter/ljubljana/mojca-sojar.png"
        },
        "start_time": "2021-11-15T15:30:00",
        "votes": [],
        "session": {
          "name": "27. seja Mestnega sveta MOL",
          "id": 3772,
          "start_time": "2021-11-15T15:30:00",
          "end_time": null,
          "organizations": [
            {
              "name": "Mestni svet MOL",
              "acronym": null,
              "slug": "1-mestni-svet-mol",
              "color": "#09A2CC",
              "classification": "root"
            }
          ],
          "classification": "regular",
          "in_review": false,
          "has_transcript": true
        }
      }
    ],
    "mandate": {
      "description": "MOL mandat ta naš, kaj je že",
      "beginning": "2018-12-17T12:00:00"
    },
    "group": {
      "name": "Nova Slovenija – Krščanski demokrati",
      "acronym": "NSi",
      "slug": "16-nova-slovenija-krscanski-demokrati",
      "color": "#665F0C",
      "classification": "pg"
    },
    "count": 309,
    "pages": 31,
    "page": 1,
    "per_page": 10
  }
}
