{
  "url": "https://parladata.lb.djnd.si/v3/cards/misc/members/?id=1",
  "data": {
    "results": [
      {
        "slug": "259-ales-cerin",
        "name": "Aleš Čerin",
        "honorific_prefix": null,
        "honorific_suffix": null,
        "preferred_pronoun": "he",
        "group": {
          "name": "Lista Zorana Jankovića ",
          "acronym": "",
          "slug": "22-lista-zorana-jankovica"
        },
        "image": "https://s3.fr-par.scw.cloud/parlameter/ljubljana/Screenshot_from_2021-07-14_17-03-15.png",
        "results": {
          "mandates": null,
          "speeches_per_session": 10.2,
          "number_of_questions": 0.0,
          "mismatch_of_pg": 22.1973094170404,
          "presence_votes": 81.8385650224215,
          "birth_date": null,
          "education": null,
          "spoken_words": 14023.0,
          "vocabulary_size": 0.00169043254362519,
          "working_bodies": [
            {
              "name": "Statutarno pravna komisija",
              "acronym": "",
              "slug": "26-statutarno-pravna-komisija"
            },
            {
              "name": "Komisija za mandatna vprašanja, volitve in imenovanja",
              "acronym": "",
              "slug": "31-komisija-za-mandatna-vprasanja-volitve-in-imenovanja"
            }
          ]
        }
      },
      {
        "slug": "230-ana-zagozen",
        "name": "Ana Zagožen",
        "honorific_prefix": null,
        "honorific_suffix": null,
        "preferred_pronoun": "she",
        "group": {
          "name": "Slovenska demokratska stranka ",
          "acronym": "",
          "slug": "21-slovenska-demokratska-stranka"
        },
        "image": "https://s3.fr-par.scw.cloud/parlameter/ljubljana/ana-zagozen.png",
        "results": {
          "mandates": null,
          "speeches_per_session": 0.52,
          "number_of_questions": 13.0,
          "mismatch_of_pg": 25.7847533632287,
          "presence_votes": 73.3183856502242,
          "birth_date": null,
          "education": null,
          "spoken_words": 1577.0,
          "vocabulary_size": 0.0231490882508224,
          "working_bodies": [
            {
              "name": "Komisija za mednarodne odnose",
              "acronym": "",
              "slug": "30-komisija-za-mednarodne-odnose"
            },
            {
              "name": "Odbor za stanovanjsko politiko",
              "acronym": "",
              "slug": "37-odbor-za-stanovanjsko-politiko"
            }
          ]
        }
      },
      {
        "slug": "240-anton-kastelic",
        "name": "Anton Kastelic",
        "honorific_prefix": null,
        "honorific_suffix": null,
        "preferred_pronoun": null,
        "group": {
          "name": "Lista Zorana Jankovića ",
          "acronym": "",
          "slug": "22-lista-zorana-jankovica"
        },
        "image": null,
        "results": {
          "mandates": null,
          "speeches_per_session": 0.0,
          "number_of_questions": 0.0,
          "mismatch_of_pg": 17.9372197309417,
          "presence_votes": 86.7713004484305,
          "birth_date": null,
          "education": null,
          "spoken_words": 0.0,
          "vocabulary_size": 0.0,
          "working_bodies": []
        }
      },
      {
        "slug": "236-asta-vrecko",
        "name": "Asta Vrečko",
        "honorific_prefix": null,
        "honorific_suffix": null,
        "preferred_pronoun": null,
        "group": {
          "name": "Levica ",
          "acronym": "",
          "slug": "20-levica"
        },
        "image": "https://s3.fr-par.scw.cloud/parlameter/ljubljana/grafit.jpeg",
        "results": {
          "mandates": null,
          "speeches_per_session": 0.0,
          "number_of_questions": 0.0,
          "mismatch_of_pg": 0.0,
          "presence_votes": 0.0,
          "birth_date": null,
          "education": null,
          "spoken_words": 0.0,
          "vocabulary_size": 0.0,
          "working_bodies": []
        }
      },
      {
        "slug": "242-bruna-antauer",
        "name": "Bruna Antauer",
        "honorific_prefix": null,
        "honorific_suffix": null,
        "preferred_pronoun": null,
        "group": {
          "name": "Lista Zorana Jankovića ",
          "acronym": "",
          "slug": "22-lista-zorana-jankovica"
        },
        "image": "https://s3.fr-par.scw.cloud/parlameter/ljubljana/bruna-antauer.png",
        "results": {
          "mandates": null,
          "speeches_per_session": 0.0,
          "number_of_questions": 0.0,
          "mismatch_of_pg": 15.4708520179372,
          "presence_votes": 89.4618834080717,
          "birth_date": null,
          "education": null,
          "spoken_words": 0.0,
          "vocabulary_size": 0.0,
          "working_bodies": [
            {
              "name": "Komisija za mandatna vprašanja, volitve in imenovanja",
              "acronym": "",
              "slug": "31-komisija-za-mandatna-vprasanja-volitve-in-imenovanja"
            },
            {
              "name": "Odbor za stanovanjsko politiko",
              "acronym": "",
              "slug": "37-odbor-za-stanovanjsko-politiko"
            },
            {
              "name": "Odbor za predšolsko vzgojo in izobraževanje",
              "acronym": "",
              "slug": "39-odbor-za-predsolsko-vzgojo-in-izobrazevanje"
            }
          ]
        }
      },
      {
        "slug": "243-danilo-saric",
        "name": "Danilo Šarić",
        "honorific_prefix": null,
        "honorific_suffix": null,
        "preferred_pronoun": null,
        "group": {
          "name": "Lista Zorana Jankovića ",
          "acronym": "",
          "slug": "22-lista-zorana-jankovica"
        },
        "image": null,
        "results": {
          "mandates": null,
          "speeches_per_session": 0.0434782608695652,
          "number_of_questions": 0.0,
          "mismatch_of_pg": 6.72645739910314,
          "presence_votes": 98.4304932735426,
          "birth_date": null,
          "education": null,
          "spoken_words": 177.0,
          "vocabulary_size": 0.313915857605178,
          "working_bodies": [
            {
              "name": "Komisija za priznanja",
              "acronym": "",
              "slug": "27-komisija-za-priznanja"
            },
            {
              "name": "Komisija za pobude občanov",
              "acronym": "",
              "slug": "29-komisija-za-pobude-obcanov"
            },
            {
              "name": "Odbor za varstvo okolja",
              "acronym": "",
              "slug": "34-odbor-za-varstvo-okolja"
            }
          ]
        }
      },
      {
        "slug": "254-dejan-crnek",
        "name": "Dejan Crnek",
        "honorific_prefix": null,
        "honorific_suffix": null,
        "preferred_pronoun": null,
        "group": {
          "name": "Lista Zorana Jankovića ",
          "acronym": "",
          "slug": "22-lista-zorana-jankovica"
        },
        "image": null,
        "results": {
          "mandates": null,
          "speeches_per_session": 0.0869565217391304,
          "number_of_questions": 0.0,
          "mismatch_of_pg": 13.0044843049327,
          "presence_votes": 91.2556053811659,
          "birth_date": null,
          "education": null,
          "spoken_words": 234.0,
          "vocabulary_size": 0.10333048676345,
          "working_bodies": [
            {
              "name": "Komisija za priznanja",
              "acronym": "",
              "slug": "27-komisija-za-priznanja"
            },
            {
              "name": "Odbor za šport",
              "acronym": "",
              "slug": "36-odbor-za-sport"
            }
          ]
        }
      },
      {
        "slug": "220-dr-dragan-matic",
        "name": "dr. Dragan Matić",
        "honorific_prefix": null,
        "honorific_suffix": null,
        "preferred_pronoun": null,
        "group": {
          "name": "Svetniški klub samostojnih svetnikov ",
          "acronym": "",
          "slug": "18-svetniski-klub-samostojnih-svetnikov"
        },
        "image": null,
        "results": {
          "mandates": null,
          "speeches_per_session": 2.04,
          "number_of_questions": 30.0,
          "mismatch_of_pg": 35.4260089686099,
          "presence_votes": 43.4977578475336,
          "birth_date": null,
          "education": null,
          "spoken_words": 14838.0,
          "vocabulary_size": 0.0011820920687833,
          "working_bodies": [
            {
              "name": "Odbor za kulturo in raziskovalno dejavnost",
              "acronym": "",
              "slug": "41-odbor-za-kulturo-in-raziskovalno-dejavnost"
            }
          ]
        }
      },
      {
        "slug": "255-dr-marta-bon",
        "name": "dr. Marta Bon",
        "honorific_prefix": null,
        "honorific_suffix": null,
        "preferred_pronoun": null,
        "group": {
          "name": "Lista Zorana Jankovića ",
          "acronym": "",
          "slug": "22-lista-zorana-jankovica"
        },
        "image": null,
        "results": {
          "mandates": null,
          "speeches_per_session": 0.32,
          "number_of_questions": 0.0,
          "mismatch_of_pg": 16.8161434977578,
          "presence_votes": 86.9955156950673,
          "birth_date": null,
          "education": null,
          "spoken_words": 307.0,
          "vocabulary_size": 0.122664500406174,
          "working_bodies": [
            {
              "name": "Statutarno pravna komisija",
              "acronym": "",
              "slug": "26-statutarno-pravna-komisija"
            },
            {
              "name": "Odbor za šport",
              "acronym": "",
              "slug": "36-odbor-za-sport"
            },
            {
              "name": "Odbor za kulturo in raziskovalno dejavnost",
              "acronym": "",
              "slug": "41-odbor-za-kulturo-in-raziskovalno-dejavnost"
            }
          ]
        }
      },
      {
        "slug": "232-dr-zvone-cadez",
        "name": "dr. Zvone Čadež",
        "honorific_prefix": null,
        "honorific_suffix": null,
        "preferred_pronoun": null,
        "group": {
          "name": "Slovenska demokratska stranka ",
          "acronym": "",
          "slug": "21-slovenska-demokratska-stranka"
        },
        "image": null,
        "results": {
          "mandates": null,
          "speeches_per_session": 2.44,
          "number_of_questions": 10.0,
          "mismatch_of_pg": 10.762331838565,
          "presence_votes": 87.4439461883408,
          "birth_date": null,
          "education": null,
          "spoken_words": 7305.0,
          "vocabulary_size": 0.00289389767968725,
          "working_bodies": [
            {
              "name": "Komisija za priznanja",
              "acronym": "",
              "slug": "27-komisija-za-priznanja"
            },
            {
              "name": "Odbor za zaščito, reševanje in civilno obrambo",
              "acronym": "",
              "slug": "33-odbor-za-zascito-resevanje-in-civilno-obrambo"
            }
          ]
        }
      }
    ],
    "mandate": {
      "description": "MOL mandat ta naš, kaj je že",
      "beginning": null
    },
    "count": 43,
    "pages": 5,
    "page": 1,
    "per_page": 10
  }
}
