{
  "url": "https://parladata.lb.djnd.si/v3/cards/search/speeches/?id=1&text=hvala",
  "data": {
    "results": [
      {
        "id": 4,
        "content": "[...]<em>Hvala</em>esedo. Spoštovani mestni svetnik gospod Dragan Matić. Iz razpoložljivega dopisa tak[...]",
        "the_order": 4,
        "quoted_text": null,
        "start_idx": null,
        "end_idx": null,
        "quote_id": null,
        "person": {
          "slug": "106-simona-remih",
          "name": "Simona Remih",
          "honorific_prefix": null,
          "honorific_suffix": null,
          "preferred_pronoun": null,
          "group": null,
          "image": null
        },
        "start_time": "2019-12-16T15:30:00",
        "votes": [],
        "session": {
          "name": "22. seja Mestnega sveta MOL",
          "id": 54,
          "start_time": "2021-04-19T15:30:00",
          "end_time": null,
          "organizations": [
            {
              "name": "Mestni svet MOL",
              "acronym": null,
              "slug": "1-mestni-svet-mol"
            }
          ],
          "classification": null,
          "in_review": false
        }
      },
      {
        "id": 5,
        "content": "[...]de izročanja arhivskega gradiva in drugih z arhivskim gradivom povezanih vprašanj. <em>Hvala</em>[...]",
        "the_order": 5,
        "quoted_text": null,
        "start_idx": null,
        "end_idx": null,
        "quote_id": null,
        "person": {
          "slug": "107-mag-mateja-demsic",
          "name": "Mag. Mateja Demšič",
          "honorific_prefix": null,
          "honorific_suffix": null,
          "preferred_pronoun": null,
          "group": null,
          "image": null
        },
        "start_time": "2019-12-16T15:30:00",
        "votes": []
      },
      {
        "id": 8,
        "content": "[...]<em>Hvala</em>. Mi smo v skrbi za zaščito javnega interesa meščanov in državljanov v SK Levica na[...]",
        "the_order": 8,
        "quoted_text": null,
        "start_idx": null,
        "end_idx": null,
        "quote_id": null,
        "person": {
          "slug": "4-milan-jakopovic",
          "name": "Milan Jakopovič",
          "honorific_prefix": null,
          "honorific_suffix": null,
          "preferred_pronoun": null,
          "group": {
            "name": "Levica ",
            "acronym": "",
            "slug": "2-levica"
          },
          "image": null
        },
        "start_time": "2019-12-16T15:30:00",
        "votes": []
      },
      {
        "id": 10,
        "content": "[...]<em>Hvala</em>esedo še enkrat. Spoštovani mestni svetnik, gospod Milan Jakopovič. Pri vaših vpraš[...]",
        "the_order": 10,
        "quoted_text": null,
        "start_idx": null,
        "end_idx": null,
        "quote_id": null,
        "person": {
          "slug": "106-simona-remih",
          "name": "Simona Remih",
          "honorific_prefix": null,
          "honorific_suffix": null,
          "preferred_pronoun": null,
          "group": null,
          "image": null
        },
        "start_time": "2019-12-16T15:30:00",
        "votes": []
      },
      {
        "id": 12,
        "content": "[...]<em>Hvala</em> za besedo. Pozdravljam vse prisotne svetnice in svetnike. Naše vprašanje je očitno[...]",
        "the_order": 12,
        "quoted_text": null,
        "start_idx": null,
        "end_idx": null,
        "quote_id": null,
        "person": {
          "slug": "21-mojca-sojar",
          "name": "Mojca Sojar",
          "honorific_prefix": null,
          "honorific_suffix": null,
          "preferred_pronoun": null,
          "group": {
            "name": "Nova Slovenija – Krščanski demokrati ",
            "acronym": "",
            "slug": "6-nova-slovenija-krscanski-demokrati"
          },
          "image": null
        },
        "start_time": "2019-12-16T15:30:00",
        "votes": []
      },
      {
        "id": 13,
        "content": "[...]novitelja. In naj se tam obrnejo. Simona, bi še kaj dodala glede drugih prostorov? <em>Hvala</em> ker se mi zdi tisto, kar se mi zdi najbolj pomembno. In sicer odprli smo 8 prenovl[...]",
        "the_order": 13,
        "quoted_text": null,
        "start_idx": null,
        "end_idx": null,
        "quote_id": null,
        "person": {
          "slug": "105-zoran-jankovic",
          "name": "Zoran Janković",
          "honorific_prefix": null,
          "honorific_suffix": null,
          "preferred_pronoun": null,
          "group": null,
          "image": null
        },
        "start_time": "2019-12-16T15:30:00",
        "votes": []
      },
      {
        "id": 15,
        "content": "<em>Hvala za besedo gospod župan. Cenjene kolegice in spoštovani kolegi. Komisija vam v presojo in sprejem predlaga 1 sklep in 1 mnenje. Hvala</em> lepa.",
        "the_order": 15,
        "quoted_text": null,
        "start_idx": null,
        "end_idx": null,
        "quote_id": null,
        "person": {
          "slug": "43-ales-cerin",
          "name": "Aleš Čerin",
          "honorific_prefix": null,
          "honorific_suffix": null,
          "preferred_pronoun": null,
          "group": {
            "name": "Lista Zorana Jankovića ",
            "acronym": "",
            "slug": "8-lista-zorana-jankovica"
          },
          "image": null
        },
        "start_time": "2019-12-16T15:30:00",
        "votes": []
      },
      {
        "id": 30,
        "content": "[...]to smo tudi preverjali, pravim v vseh komisijah do Bruslja. Ugotavljam navzočnost. <em>Hvala</em>i na Računskem sodišču za javno zasebna partnerstva. Dobili smo odločbo delno učink[...]",
        "the_order": 30,
        "quoted_text": null,
        "start_idx": null,
        "end_idx": null,
        "quote_id": null,
        "person": {
          "slug": "105-zoran-jankovic",
          "name": "Zoran Janković",
          "honorific_prefix": null,
          "honorific_suffix": null,
          "preferred_pronoun": null,
          "group": null,
          "image": null
        },
        "start_time": "2019-12-16T15:30:00",
        "votes": []
      },
      {
        "id": 98,
        "content": "<em>Hvala</em> za besedo. Odbor je s 7 glasovi sprejel sklep.",
        "the_order": 98,
        "quoted_text": null,
        "start_idx": null,
        "end_idx": null,
        "quote_id": null,
        "person": {
          "slug": "10-jozef-horvat",
          "name": "Jožef Horvat",
          "honorific_prefix": null,
          "honorific_suffix": null,
          "preferred_pronoun": null,
          "group": {
            "name": "Nova Slovenija – Krščanski demokrati ",
            "acronym": "",
            "slug": "6-nova-slovenija-krscanski-demokrati"
          },
          "image": null
        },
        "start_time": "2019-12-16T15:30:00",
        "votes": []
      },
      {
        "id": 99,
        "content": "<em>Hvala</em> lepa. Gospod Sedmak.",
        "the_order": 99,
        "quoted_text": null,
        "start_idx": null,
        "end_idx": null,
        "quote_id": null,
        "person": {
          "slug": "105-zoran-jankovic",
          "name": "Zoran Janković",
          "honorific_prefix": null,
          "honorific_suffix": null,
          "preferred_pronoun": null,
          "group": null,
          "image": null
        },
        "start_time": "2019-12-16T15:30:00",
        "votes": []
      }
    ],
    "mandate": {
      "description": "Mandat mestnega sveta MOL",
      "beginning": null
    },
    "count": 166,
    "pages": 17,
    "page": 1,
    "per_page": 10
  }
}
